@startuml

hide empty member

package GameStart <<Rectangle>>{
    class CampaignSelection <<M, yellow>>{
        ChooseRunType() : void
    }
    class RunType <<S, red>>{
        isEndless : bool
        isStoryMode : bool
    }
    
    CampaignSelection -- RunType
}

package DeckBuilding <<Rectangle>>{
    enum CardType {
        EncounterCard
        EnemyCard
        BlessingCard
        CurseCard
        EquipmentCard
        AbilityCard
    }
    
    class EncounterCard <<S, red>>{
        RandomEncounter() : void
    }
    
    class EnemyCard <<S, red>>{
        atkPower : int
        healthPoints : int
        DoDamage() : void
    }
    
    class BlessingCard <<S, red>>{
        Bonus() : void
    }
    
    class CurseCard <<S, red>>{
        Malus() : void
    }
    
    class Deck <<M, yellow>>{
        Cards[] : card
        Size() : void
    }
    
    class EquipmentCard <<S, red>>{
        StatsUp() : void
    }
    
    class AbilityCard <<S, red>>{
        Damage() : void
        Parry() : void
    }
    
    class Card{
        SelectCards() : void
    }
    
    Card *- CardType
    Deck -- Card
    CardType -- EncounterCard
    CardType -- EquipmentCard
    CardType -- CurseCard
    CardType -- BlessingCard
    CardType -- EnemyCard
    CardType -- AbilityCard
}

package Map <<Rectangle>>{
    class CardBoardGenerator <<M, yellow>>{
        Board : Slot[][]
    }
    class BoardStats <<S, red>>{
        GridSize
    }
    class CardBoard{
        GenerateGrid() : void
    }
    class EncounterController <<M, yellow>>{
        choiceDialogue : string
        dialogue : string
        InputChoice() : void
        Risk() : void
        Reward() : void
        
    }
    
    class Encounter <<S, red>>{
        EnemyCard
        
    }
    class Cell{
        ChooseRandomEncounter() : void
    }
    
    
    CardBoard *- BoardStats
    CardBoardGenerator -- CardBoard
    CardBoardGenerator <- EncounterController
    EncounterController -- Cell
    Encounter -* Cell
}

package Hero <<Rectangle>>{
    class PlayerController <<M, yellow>>{
        SpendMoney() : void
        Move() : void
        DoDamage() : void
        TakeDamage() : void 
    }
    
    class Player <<S, red>>{
        healthPoints : int
        money : int
        fuel : int
        attackPower : int
    }

    
    class Equipment{
        actualEquip[] : equippable
    }
    
   PlayerController *-- Player 
   Equipment - PlayerController

    
}

package RiskSystem <<Rectangle>>{
    class RiskSystem <<M, yellow>>{
        Success() : void
        Failure() : void
    }
    
    class Success <<S, red>>{
        StatsUp() : void
    }
    class Failure <<S, red>>{
        StatsDown() : void
    }
    
    RiskSystem -- Success
    RiskSystem -- Failure
}

package Fight <<Rectangle>>{
    class Battle <<M, yellow>>{
        TurnSystem() : void
        UseAbilityCard() : void
    }
}

package UI <<Rectangle>>{
    class UIHero <<M, yellow>>
    class UIMap <<M, yellow>>
    class UIDeck <<M, yellow>>
    class UIRiskSystem <<M, yellow>>
    class UIGameStart <<M, yellow>>
    class UIEncounter <<M, yellow>>
}
    
class Trait <<S, red>>{
    StatsChange() : void
    
}

CampaignSelection -> Deck
GameStart --- Map
Map --- Hero
Trait - CardType
AbilityCard -* Battle

RiskSystem --> EncounterController
Trait -- EncounterController
EncounterController -- Fight

Player --- EncounterController
PlayerController *-- Trait
PlayerController - Cell

Deck -- EncounterController
Deck -- Encounter

UIHero - Hero
UIMap - Map
UIRiskSystem -- RiskSystem
UIDeck - DeckBuilding
UIGameStart --- GameStart
UIEncounter - EncounterController

note bottom of Map
//EncounterController gestisce tutti gli encounter, ogni volta che il player si muove.
//Contiene funzioni che aumentano/diminuiscono le stats del giocatore.
end note

note top of DeckBuilding
//La grandezza di Deck viene modificata a seconda del tipo di modalità che viene scelta in GameStart
end note

@enduml